performed in cpp

steps:
    int main()

    {
        SET T,x,N
        READ T

        FOR each T
        
            READ N
            SET long arr[N], arrB[N]
            
            FOR(int j=0;j<N;j++)
            
                cin>>arr[j];
            
            ENS FOR

            PRINT arr[0]+" "

            FOR(int j=1;j<N;j++)
            
                SET arr[j]=arr[j]*((arr[j-1]+arr[j]-1)/arr[j]);
                PRINT arr[j]+" "

            END FOR
            cout<<"\n";

        END FOR

    }